module gitlab.com/edsanchez/xm-exercise

go 1.20

require (
	github.com/go-sql-driver/mysql v1.7.0
	github.com/gofrs/uuid v4.4.0+incompatible
	github.com/golang-jwt/jwt v3.2.2+incompatible
	github.com/golang/mock v1.6.0
	github.com/gorilla/mux v1.8.0
	github.com/jinzhu/gorm v1.9.16
	github.com/segmentio/kafka-go v0.4.40
	github.com/spf13/viper v1.15.0
	github.com/stretchr/testify v1.8.2
	gopkg.in/DATA-DOG/go-sqlmock.v1 v1.3.0
)

require (
	github.com/davecgh/go-spew v1.1.1 // indirect
	github.com/fsnotify/fsnotify v1.6.0 // indirect
	github.com/hashicorp/hcl v1.0.0 // indirect
	github.com/jinzhu/inflection v1.0.0 // indirect
	github.com/jinzhu/now v1.1.5 // indirect
	github.com/klauspost/compress v1.15.9 // indirect
	github.com/magiconair/properties v1.8.7 // indirect
	github.com/mitchellh/mapstructure v1.5.0 // indirect
	github.com/pelletier/go-toml/v2 v2.0.6 // indirect
	github.com/pierrec/lz4/v4 v4.1.15 // indirect
	github.com/pmezard/go-difflib v1.0.0 // indirect
	github.com/rogpeppe/go-internal v1.8.0 // indirect
	github.com/spf13/afero v1.9.3 // indirect
	github.com/spf13/cast v1.5.0 // indirect
	github.com/spf13/jwalterweatherman v1.1.0 // indirect
	github.com/spf13/pflag v1.0.5 // indirect
	github.com/subosito/gotenv v1.4.2 // indirect
	golang.org/x/net v0.9.0 // indirect
	golang.org/x/sys v0.7.0 // indirect
	golang.org/x/text v0.9.0 // indirect
	gopkg.in/check.v1 v1.0.0-20190902080502-41f04d3bba15 // indirect
	gopkg.in/ini.v1 v1.67.0 // indirect
	gopkg.in/yaml.v3 v3.0.1 // indirect
)
